{
  "$id": "https://example.com/book.schema.json",
  "$schema": "http://json-schema.org/draft-07/schema#",
  "title": "Book",
  "required": [ "title", "isbn-13" ],
  "type": "object",
  "properties": {
    "title": {
      "type": "string",
      "description": "The title of the book."
    },
    "isbn-13": {
      "type": "string",
      "description": "ISBN-13 of the book."
    },
    "datePublished": {
      "description": "The year the book was published",
      "type": "string",
      "format": "date"
    }
  }
}
