{ "ansatte" : [ 
    {
    "id" : "davm",
    "navn" : "David Massey",
    "stilling" : "Universitetslektor"
    }, 
    {
    "id" : "tsodring",
    "navn" : "Thomas Sødring",
    "stilling" : "Førsteamanuensis"
    }, 
    {
    "id" : "michaelp",
    "navn" : "Michael Preminger",
    "stilling" : "Førsteamanuensis"
    }
    ]
}